The dplyr package
…
## [1] 917  13

# variable names
names(all_deaths)

##  [1] "name"               "allegiances"        "year_of_death"     
##  [4] "book_of_death"      "death_chapter"      "book_intro_chapter"
##  [7] "gender"             "nobility"           "book1_GoT"         
## [10] "book2_CoK"          "book3_SoS"          "book4_FfC"         
## [13] "book5_DwD"

# look at the actual data
print(all_deaths)

## # A tibble: 917 x 13
##    name  allegiances year_of_death book_of_death death_chapter
##    <chr> <chr>               <dbl>         <dbl>         <dbl>
##  1 Adda Lannister              NA            NA            NA
##  2 Aego None                  299             3            51
##  3 Aego House Targ            NA            NA            NA
##  4 Adra House Grey           300             5            20
##  5 Aemo Lannister              NA            NA            NA
##  6 Aemo Baratheon              NA            NA            NA
##  7 Aemo Night's Wa           300             4            35
##  8 Aeny None                  300             5            NA
##  9 Aero House Grey            NA            NA            NA
## 10 Aeth Night's Wa            NA            NA            NA
## #  with 907 more rows, and 8 more variables: book_intro_chapter <dbl>,
## #   gender <dbl>, nobility <dbl>, book1_GoT <dbl>, book2_CoK <dbl>,
## #   book3_SoS <dbl>, book4_FfC <dbl>, book5_DwD <dbl>
…
